<svg xmlns="http://www.w3.org/2000/svg" xmlns:dc="http://purl.org/dc/elements/1.1/" xmlns:ns1="http://www.inkscape.org/namespaces/inkscape" xmlns:ns2="http://sodipodi.sourceforge.net/DTD/sodipodi-0.dtd" xmlns:ns4="http://creativecommons.org/ns#" xmlns:ns6="http://www.w3.org/1999/xlink" xmlns:rdf="http://www.w3.org/1999/02/22-rdf-syntax-ns#" width="1920px" height="1080px" viewBox="0 0 1920 1080" version="1.1" id="SVGRoot" ns1:version="0.92.4 (5da689c313, 2019-01-14)" ns2:docname="abc.svg">
  <defs id="defs815" />
  <ns2:namedview id="base" pagecolor="#ffffff" bordercolor="#666666" borderopacity="1.0" ns1:pageopacity="0.0" ns1:pageshadow="2" ns1:zoom="0.35" ns1:cx="960" ns1:cy="540" ns1:document-units="px" ns1:current-layer="layer4" showgrid="false" ns1:window-width="960" ns1:window-height="1057" ns1:window-x="0" ns1:window-y="23" ns1:window-maximized="0" />
  <metadata id="metadata818">
    <rdf:RDF>
      <ns4:Work rdf:about="">
        <dc:format>image/svg+xml</dc:format>
        <dc:type rdf:resource="http://purl.org/dc/dcmitype/StillImage" />
        <dc:title />
      </ns4:Work>
    </rdf:RDF>
  </metadata>
  <g ns1:groupmode="layer" id="layer4" ns1:label="title" style="display:inline">
    <flowRoot transform="translate(0,1.8750002e-6)" xml:space="preserve" id="flowRoot1526" style="font-style:normal;font-variant:normal;font-weight:normal;font-stretch:normal;font-size:40px;line-height:1.25;font-family:'Latin Modern Sans';-inkscape-font-specification:'Latin Modern Sans, Normal';font-variant-ligatures:normal;font-variant-caps:normal;font-variant-numeric:normal;font-feature-settings:normal;text-align:start;letter-spacing:0px;word-spacing:0px;writing-mode:lr-tb;text-anchor:start;fill:#000000;fill-opacity:1;stroke:none"><flowRegion id="flowRegion1528"><rect id="rect1530" width="1305.7142" height="348.57144" x="100" y="697.14288" /></flowRegion><flowPara id="flowPara1532" style="font-style:normal;font-variant:normal;font-weight:normal;font-stretch:normal;font-family:'Latin Modern Mono';-inkscape-font-specification:'Latin Modern Mono'">abc.svg: title, a #this is a a</flowPara><flowPara id="flowPara1534" style="font-style:normal;font-variant:normal;font-weight:normal;font-stretch:normal;font-family:'Latin Modern Mono';-inkscape-font-specification:'Latin Modern Mono'">abc.svg: title, a, b #this is a b</flowPara><flowPara id="flowPara1536" style="font-style:normal;font-variant:normal;font-weight:normal;font-stretch:normal;font-family:'Latin Modern Mono';-inkscape-font-specification:'Latin Modern Mono'">abc.svg: title, a, b, c #this is a c</flowPara><flowPara id="flowPara1538" style="font-style:normal;font-variant:normal;font-weight:normal;font-stretch:normal;font-family:'Latin Modern Mono';-inkscape-font-specification:'Latin Modern Mono'" /></flowRoot>    <text id="text1520" y="105.7143" x="91.428574" style="font-style:normal;font-variant:normal;font-weight:normal;font-stretch:normal;font-size:64px;line-height:1.25;font-family:'Latin Modern Sans';-inkscape-font-specification:'Latin Modern Sans, Normal';font-variant-ligatures:normal;font-variant-caps:normal;font-variant-numeric:normal;font-feature-settings:normal;text-align:start;letter-spacing:0px;word-spacing:0px;writing-mode:lr-tb;text-anchor:start;fill:#000000;fill-opacity:1;stroke:none" xml:space="preserve"><tspan y="105.7143" x="91.428574" id="tspan1518" ns2:role="line">This slide contains three layers that are displayed consecutively. </tspan><tspan id="tspan1522" y="185.71429" x="91.428574" ns2:role="line" /><tspan id="tspan1524" y="265.71429" x="91.428574" ns2:role="line" /></text>
    <image y="697.56903" x="1087.3572" id="image1693" ns6:href="data:image/png;base64,iVBORw0KGgoAAAANSUhEUgAAAV8AAACKCAIAAACCU97+AAAAA3NCSVQICAjb4U/gAAAZhUlEQVR4 Xu2dCVxN6RvHoyiMrei2ymQnpZSKpGj8s4WxZ5etwVjHMoOx70J2g8k6g4qJxpYtTCjabCFCK1q0 IFr+P05z3bndbufc6nbu7bkffI73PO/zvu/37fzu+z7ndB6Vvbs2qdCHCBABIlCIgBpT8uTRvUKn qIAIEIEKTaByhR49DZ4IEIGiCZA6FM2GzhCBik2A1KFizz+NnggUTUBp1eH16zfWth0TE5OKHvvn MyNGuq1d5yHRZuIPUxYtXsacysvLm/fLwrZWto2btoq8Ww4xGtHOSOwty8K58+Zv3LSZpTGZVXAC BVHJLdt2ZWRkFlwJubnZHz++//LJzv7w4cPnv5VUVNasWdHQqIEor9lzfo6Niz980IuHED02bHLp 1VNHR4C+ZWRkeG7Zdv7chTfJyYaGBj26dxs5YmjNmjXZd/vCxUvnzp3/+9QJgeCzw3HjfzAyajD/ l7nsPcAyNTV1245dFy5cgmbVrVu3VcvmbmNGW1tbyexQSutFTc2UyT84d3cZPGggQ0aKBzrFHwJv 3749eerv+PiE3NxcsV7h59mlV49atWpJ761sHgrUoUN7m8Cr/yxYsKB69epoJv/Lhzlg/vX19Z0x c86+33dxuqik97jszr55k3zir5On/HyZJmb+NDc+Ln7L5g2NGzeKi0/w9z/t7XN89KgR0juwY9vX 79jnz18YGBgw0iC9FoSjfXubws6TkpIGDBraoIGhx7rVLVo0f5ue/vBB1Jat2y0t26qqyr6CK6q5 ojqpr69naWlx+I8jM6b/WJQNlfONwF9+p/T19IYMHqiqqiraN4jF5cuBEI6hroOl91k2DwU/l+Zt TJs0abRvnxfUoUaNGt988w1UAB9oEvPp16+fra3trJ/mYY0tvR84u2DhYqzA8cfSqv3Yce4xMc+Z Kse8fdvZdMzJyRF6+HHazB8mTcV/IUZ7f9/X2cm5pYn5/7r1OnrMW2iDxT9W9VOnzTIzbzd0+CiU X716vXffAa3N2nb5rtuu3/bk5op36ey583p6uo0aGcP448ePV65cdXMbZWLSSkNDo5Hxtz9O+UH0 6k1NfQv5sGlvb2Vtt2TpCqE34WJ+8pRpq1avu3fvPkaEHuJr+dLlK177DjBjjH76TNhVKQeLl6zA 2T2/7WjTxkxdXV27fn17e7sD+/dCGgo7LDxkKZ65nurS2fHkKX+utci+HAnExcU7ONiLSQMW9ShB Oc4W2zfGQ2Zm5uHDf2IdAXv8i2OUSPFQoA7YWYSHR0ZFPTpy5Ejhlj59+cyaNQvfeJu3bC9sIFay dMmveIACf86cPokVLC4zZkXUs0e37OzsCxcvM/Zpb98GBFzs3/97/HfL1h1Hj/ls8Fh7Ozho6eKF 69ZvOuX/t9Ctt7evjU27oOuXDx3wevfunfukH/v363vrxvV9XrvT0zMePXok1oHbt++0NjFhCqtU qQLJu3Hjlqgqidp7+/i2t7W5cP707t+2+x7/y/f4CTFvWzZvnDVzOsQFI7oYcGbN6hWODp1GjRzO jBFyI2Zf+L/oM/YmQ12HQBcKn5XoUHTIhauUpMTUtPXLl7FYy5TECdWVMwFRaYAuXLv2z/YdO9EH lBfebkjsGyyxan7+4uWhw0defPkXxyiR4qFAHbCzwCU0b968S5cuXbt2Tcw7ow74el+5chW+/8+c OSex+cKF9eppLVzw87NnMY+fRONstWrVevXsjp97xtLP71Sd2rU72XeEZGAJsGD+PDPT1tWqabRr ZzV8mOuxYwVmMO7QwRbLKmbXk5ycgjgIvgBhaaCvP2vmNCzUxZpOSEzS0tJkCitVqrR40YK/T5+1 ad9pgvtkNPQsJkbU3qlL537f98GKCa13duwUEnK78EBKWPLiZSym8Ntvjdj7ER0y+1psLOtpacEs ISGRjTHZ8IqAUBeuXruOY65969GjW+3atbFqOPRlBYFjlEhxUhB3wM4CV5Svrw8WCNCIVatW4QoU fhCexLcfFiH4Ecdn6fJVzs5dpTh9/PjJ2vUbwsIiEIdj4hcIqDRv1hRVBg7sP2Cg66vXr7G0htD0 7euCpXVU1FM0McZtAgyYkAf+RbhF2ESTJo2FxwYG+hCU/gNdsRKxsbFub2uN/YJ4Z74ETYQfhG3s O3YIvHr9zp1QrFDWe2yCZgm3ag0bfr1osY1K5P6l6rHBc9v2z0LOfLDvWL5iNXOMxQ7ijgwE6JRI p4o5FB2ymGmxzRXjmk4rJoEvV/URZl8g2wggB7hqIA1MdRyjRIqr/9yzwI/v7du3Dx06hL26aFQS 3+0I+6elpY0dO7adVdtpUydL8YiKbuMmOnSyP+5zRCDQrly5MkIJubkFsQbT1iZNmzT29f2rk73d gwcPPTethysmluF/8jiihhI9V61SRViOTmILEBwccu16kIfHxvmpafu9dotV1NXVef3mjairOnXq QCPwB23hrt6q1WsRt2fCgVyuWYm9U0GETxjkkxgmbGBogPXb06cxkutLKhUdstj5YpuT5O9rGW7c 4D86OjrSzegs3wjgSh4zeiTWtsEhITIsHDAcKMsp/9PCceF4qOsgKQIhYWcRHBwsjEeiJj5YdeOD 79W1a9f6nfS/+G/gQCK+pKRXWCm4jRmF8LiamhokQGzDj+WDj89xfIdbtrX4tmFDOGnUqBG+/68E XpXosHAhBAK7D1wkp04eF2h/XoOI2bS1MI+IuFu4IkqgVgjaAy5u1ko0YFOIcbGJzgpdgV5nR4dD h/9AqxL9c3Uo0QnLwoiISOzI6I4mS1y8MtPQULeza+8+cUJHuw445to3RBmYDQUWzriucYwSKU7+ c8+C2Vls3LixZ8+eTk5OdnZ2lpaWJiYmpqam5ubmFhYWLi4uKSkp2FlI8YhYQ+3atXDFYrMQ9ejR 3J8XiBn3dukVn5Dw55FjTDwSZxFBGD9uDOKduDeD/Qviq1j8bN22Q2IrYWHh8xcsevAwClcapAcb AdwmFLPs2vU7RN2efAl2YB00ZOjIs+cC8JQB9kqovmfvPoQhmSiGxCaKLYTwoWnstoq1FBpgLwNB waoqPDwCXcLDWoGB13BvgrlFIoND9k2LWV66dKVnz+4yV6eK8icgFjgUagR6wj4kCUtEGYwaGGK9 gEsG/+IYJVI8FOws0Ixz1y77D/wRGhrKaWdx61YwbuwJeXXs2OH3Pbs8N3ksXbZyz14vbe36o0YM 9/j3jiZjVqtWTef/fXc+4GKP7s7Cij9OmaSlqQlFwO09gba2o2OnyZPcJU5D69atH0Y9mj173rOY 5wiwDR40AAFLMcv69ev16d3rjz+PItJZtWpVrDL2Hzi0dNmKtLS3OIWI5uTJkp1LbLFw4aiRw2bO motnMd+//3D2zCk2ty2w2fnruPf2Hbumzfjp36ehWvzgPoHZ3Yg5LNyiDCUSpwbLulvBIcuXLZbB IVUpLwK4PX/5SiB266J3LqARuLAvXrpiaPA1QldUD4UeXP99MgJrBxxL91AJ73cYM34q8xvcmZlZ uLU5cuRIrBpEm8nKykLcAZ/nz58PHz58/s9zpEcli+qisHzU6HG6erorly8p1lJmAwQ+e/b63u+E Ny2hRRniyRHEg6dPmyIzWKoofwLp6el+fv4vY2PFmoZY6OnqurgU/6ykbB7+ow5o+2VsHFb4zNPT n+9Z4MsxOxt7BHzwH6yNcQpPAV+/elFmRkE3bo4cNfakn0+zpp/vYtCHCBABfhL4urNg+mdooL9s ycJPn3JE71kwdxmFA0CYQObBdOjYGSsRPKRA0iAzQ6pIBORDQFwd0Co26viUUfMlWXSUUZfILREg AhIJyP77PxLdUSERIAJKQ4DUQWmmkgZCBEqZAKlDKQMld0RAaQgUxB0CLwcozZBoIESACJScgL2D 09eoJJ56KLlH8kAEiIASEMBtyujH9/9zz4KyWijBvNIQiEBpEaC4Q2mRJD9EQNkIkDoo24zSeIhA aRGQ8DQUXFOQsrT4kh8ioCgEEIYU66pkdYARBSkVZVKpn0Sg5ASYMCRbdYAd86sWJW+YPBABIsBn Arg9IbF7FHeQiIUKiQARUCF1oB8CIkAEJBMgdZDMhUqJABEgdaCfASJABCQTIHWQzIVKiQAR4KwO eLVkYmJBGqXmzcWTULEE6ubm5urqumvXrjlz5hgbG//zzz8sK3I1w5u1587llimbaxNkTwSUlUCR zzsUNWDk0QsKCtqyZQsMmLQ8eNmktbW1n5+frq5uUbXEynfs2IH0lkxh3759Bw8eHB0dLfq+XZZ+ yIwIEIGyI8Bh7YBMFugHUl34+/tDEZDDBjlaUHLs2DEsIthLA6oIpQHHNjY2SK5z967k5DRlN3Ly TASIgHQCHNTB2dn5xo0byJSLN+FjxY7MN82aNZs+ffrq1avHjx//5MmTHj16SG9M7Czepf/w4UNk /c7Pz9m08XPKvLL4vHnzZtCgQdra2lpaWtjIcMphVRb9IZ9EQFEIcNhZHD58uHfv3pCGcePGIeXM zZs3Dx48iGtv/fr10AjsMry9vYsdNlJUYa0RERGB4AW2Ek2bGJu1Njiyf96IsauEi5FinXAy2LNn D/Rr586d4eHh/fv3FwgEM2bM4OSBjIlAxSTAQR0Qj0QqzRMnTmhqarq7u3t6eh49evTs2bNIb7Fm zRoE/2BgZmYmnSM0BXk6YY+r9NPHzPychKqqySp5r1q11ME6Aln5pFeX4ayVldXs2bNRsVOnTlg7 eHh4kDrIgJGqVEACHHYW69atmzVrFpJZx8bGBgQENG3aFLsJJMiKjIxESkus3tlcdUjJiUyZkAZk AHRwcKytZZKYgGyXKWYta+K7vSwmAKlAhW6hFHFxccgLVBYNkU8ioGQEOKgDbkAuWrQIX/5IY62v r5+WlobrHOmycMGnpqYeOHAAdyKKpWNkZIQlxmez3OTlS9yNGmgLtPNVclPaNFUPDw0qtroMBkjY LUMtqkIEiACHnYWhoaGPj8/o0aNxl2Hq1KleXl5YROBeJhYRWK5PmjQJocpigeJaRfLr9LQXtWpk WZgKnBxbZmQk1qqc0qax6uptt4qtLoMBNjLCWjjW09PD/kgGP1SFCFQ0AhzUAWggBJcvX0a4AesI pJlHAALBAmjE5s2bbW1tWbJr3drkXuRNWyudWjWzN63tHf3gfkDYo3sPU57FFDxkxdIPSzMmzDFh woSwsDCEJxF6YFmRzIhABSfATR0AC48qDP3ywTEEQoacetiJrPPYWb16lczM95UqqTZp0qyVyeDu Q81mLW9ZFpMxZsyYkJAQBE1wTwTPaOL2Slm0Qj6JgPIR4KwOoghkkAZUHzLE1cysTcuWLeWwwkf0 VPnmjEZEBORDoETqIFsXIQqIXMhWl2oRASIgNwIc7lnIrU/UEBEgAnwgQOrAh1mgPhABPhIgdeDj rFCfiAAfCJA68GEWqA9EgI8ESB34OCvUJyLABwKkDnyYBeoDEeAjAVIHPs4K9YkI8IEAqQMfZoH6 QAT4SIDUgY+zQn0iAnwgQOrAh1mgPhABPhIgdeDjrFCfiAAfCJA68GEWqA9EgI8EOP8WFt7spK6u rqOjg9HgRfV4v4MMw8JvUr9//97BwQFpLPASWry9tn379jL4oSpEgAiUHQHO6kDZbspuMsgzEeAV AQ47C8p2w6uZo84QgbImwEEdFDHbTX5+/oYNG/DCOyTpadeuHRY+ZQ2U/BMBpSHAYWehiNluFi5c iDdl796929HRMSoqau/evXZ2dkozeTQQIlCmBDiog8Jlu3n37h3ydGHtgBRegIhkFviUKU1yTgSU iQCHnYXCZbvB/RTcGbG3t1emCaOxEAG5EeCgDgqX7QZBB3CkbDdy+2GihpSMAIedhcJlu2nRogWC kYGBgXguQ8mmjYZDBORAgMPaAb1hst1YWFhgHYE0eUy2G39/f2S7QWJult1lst2o5L5hst0kPo/x PR6ybf/jZzHxLD2wNEPSLWSvmD9//smTJ5HvE1ktkByYZV0yIwJEgMPagYGlWNluli1bhrTA06ZN i4+PR35whE5oyokAEWBJgLM6iPrlf7YbBB1++vJhiYPMiAAREBIokTrIxpGy3cjGjWoRATkT4BZ3 kHPnqDkiQATKkQCpQznCp6aJAK8JkDrwenqoc0SgHAmQOpQjfGqaCPCaAKkDr6eHOkcEypEAqUM5 wqemiQCvCZA68Hp6qHNEoBwJkDqUI3xqmgjwmgCpA6+nhzpHBMqRAKlDOcKnpokArwmQOvB6eqhz RKAcCZA6lCN8apoI8JoA59/Comw3vJ5P6hwRKD0CnNWBst2UHnzyRAR4TYDDzoKy3fB6JqlzRKC0 CXBQB0XMdjNx4kS8AAYfLS2tHj16PH78uLQBkj8ioLQEOOwsFDHbDVLd4IPZS0pKQuabPn36hIeH q6lxGLXSzjwNjAgUR4DDdaJw2W5Exy4QCDw9PWvUqHH//n1TU9PisNB5IkAEVDjsLBQu2w2m9969 ey4uLtra2pUrV9bQ0MjNzX3x4gVNOxEgAmwIcFAHRcx20717d319/eDg4OzsbEgDXqidk5PDhgvZ EAEiwGFnoXDZbuLi4rBSmDlzppGREWb6zp07nz59oiknAkSAJQEOawd4VKxsN4g11K1bF3m3s7Ky IiMj3dzcWEIhMyJABECAw9qB4aVA2W7Q1aNHj06dOhWZuHV1dXFAdzTph54IsCfAWR1EXfM/242T kxMCk8I+I3EeezRkSQQqOIESqYNs7CjbjWzcqBYRkDMBbnEHOXeOmiMCRKAcCZA6lCN8apoI8JoA qQOvp4c6RwTKkQCpQznCp6aJAK8JkDrwenqoc0SgHAmQOpQjfGqaCPCagLQ7mnt+28rrvlPniAAR KA0CDg6OEt3Q2kEiFiokAkSAy29wEy0iQAQqFAFaO1So6abBEgEOBEgdOMAiUyJQoQiQOlSo6abB EgEOBDirQ3Jyytv0dKaF+QuXcmhKxNRr36Fdu70CA697+5yY+/Ov0dFPZfPDtZZT1+62Hewl1pJy SqI9FRIBpSfAWR0eP4k+5X+G4fL+3Xsc5OfnL1u+5u3bt+xhDR82ePzYUfb2Hfr36zN+7GgoRV5e Hvvq7C27/q+nja2dRHsppyTaUyERqGgEOKhDVtY70DEzNYmMuAdFwPVcWfVz9ZCQUB1dQe3atdmz U1VVFRobGzfE+2Dj4hPYV5fZMuDc30HXA2WuThWJQIUiIO1pKDEQGzZtdR08oEEDw+o1qm/dvrtm zZrNmze/cOlaUFDQoAHfv3r1+o8j3lOnuLPHB31Brdi4eHX1KlcDA11dh7Cvy8bSvlMXwwZ4o6RR KxMz2PscO2zZzjYrKxMCUfiUmEOT1m1atDSpUeObjIz0u5FhUQ/vs2mRbIiAMhHgoA7YC2zZulNL q97MGTPbmJvfvHnz4MGDqqpqe/f+PmXK5NevX7tPHFssmvT0jNCwiFev32AloqGu0bxZ4w62zSeP tx84bNHnxUhlDmuZYtsKvHJBQ6NaenrajaBrYsZSTsHS3MLK2Ljx5YvnU1OT69XX7uLkjNfVPo2m PFrFIicDpSLAQR2SU1IFOjpnzpzV1NR0d3dH8hi8tfHs2bN4s6un5+YZM6anpKQaGuhLx/P0WUxe XqV9+w7glbCfPmbm5yRUVU1WyXvVsoUgISFRX19PenU5nMWux9TM/Py5069fJ6G5xIT4+/cimzVr QeogB/jUBK8IcFCHS5cCf/llfp06dWJjYwMCAvB+6szMzA8fPuB1z926dRs+fMT69esQlZA+PAMD veinQZAGFZVcPN19JzTi2YO9OoJPVm20njyP54M61KmjqaZWxblbL2YgyMGJA+wvpI+LzhIB5SPA QR0GD+o3Z85s5JVCegikkEFCSkgDkscg8Vxqauru3bsRlSgWkJamJjLufTbLTV6+xH3ipF8F2vkq uSltW1S/fhPllsV6KGuDL2qg4uvzZ1pqSlm3Rf6JAJ8JcFAHTc26Y0YNmzhxgpPTd3j7u5eXFxYR 1tbWWESsXLnC1tqyRYtmxQ4VX8VIcpue9qJWjSwLU4GTY8uMjMRalVPaNFaNexlTbHWuBnl5ucyX f+GKRZ1KS0vNzckxNGxA6lAYGpVUKAIc1AFcBALtqVMm3r4TtnLl8koqlTXU1UOCg+/cDnHp6Wxs /C1LcHp6gnuRN22tdGrVzN60tnf0g/vnQ6NCwxMSk9JYemBvlpmZoVWvPhJbFM6CVdQprIYiIkLN za3eZWW9ePlcvao6bnyoq2uEhYawb5csiYASEOCmDhgwgnbtrNriD45zcnLV1L4+ucASh6B+/ZWr t1RRy09LS/+Uk1dPq169+vo6Oha/LNRl6YG92b27EZ0cnVyHjcGCBXc0RStKOXXn9q3379+1Mbe0 d+jyLuvdixcxYaHB7BslSyKgHAQ4q4PosGWQBlS3tGqbEK+vq6dTTUOjrCEimnjKz1fYCp6GEh5L OQWbB/fv4k9Zd4/8EwE+EyiROsg2MIgCno+UrS7VIgJEQG4ESvPpI7l1mhoiAkRADgRIHeQAmZog AgpJgNRBIaeNOk0E5ECA1EEOkKkJIqCQBEgdFHLaqNNEQA4ESB3kAJmaIAIKSUDaHU23cZMUckzU aSJABLgQiH4s+fUltHbgQpFsiUBFIkDqUJFmm8ZKBLgQIHXgQotsiUBFIkDqUJFmm8ZKBLgQIHXg QotsiUBFIkDqUJFmm8ZKBLgQIHXgQotsiUBFIvB/7RC5ggFP8GgAAAAASUVORK5CYII= " preserveAspectRatio="none" height="220.00244" width="559.57141" />
    <text xml:space="preserve" style="font-style:normal;font-variant:normal;font-weight:bold;font-stretch:normal;font-size:40px;line-height:1.25;font-family:'Latin Modern Sans';-inkscape-font-specification:'Latin Modern Sans Bold';font-variant-ligatures:normal;font-variant-caps:normal;font-variant-numeric:normal;font-feature-settings:normal;text-align:start;letter-spacing:0px;word-spacing:0px;writing-mode:lr-tb;text-anchor:start;fill:#000000;fill-opacity:1;stroke:none" x="1093.0714" y="674.71191" id="text1698"><tspan ns2:role="line" id="tspan1696" x="1093.0714" y="674.71191">In Inkscape:</tspan></text>
    <text xml:space="preserve" style="font-style:normal;font-variant:normal;font-weight:bold;font-stretch:normal;font-size:40px;line-height:1.25;font-family:'Latin Modern Sans';-inkscape-font-specification:'Latin Modern Sans Bold';font-variant-ligatures:normal;font-variant-caps:normal;font-variant-numeric:normal;font-feature-settings:normal;text-align:start;letter-spacing:0px;word-spacing:0px;writing-mode:lr-tb;text-anchor:start;fill:#000000;fill-opacity:1;stroke:none" x="286.56781" y="692.85712" id="text1698-7"><tspan ns2:role="line" id="tspan1696-6" x="286.56781" y="692.85712">In slideds.in</tspan></text>
  </g>
  <g ns1:label="a" ns1:groupmode="layer" id="layer1" style="display:inline">
    <text xml:space="preserve" style="font-style:normal;font-variant:normal;font-weight:normal;font-stretch:normal;font-size:466.22952271px;line-height:1.25;font-family:'Latin Modern Sans';-inkscape-font-specification:'Latin Modern Sans, Normal';font-variant-ligatures:normal;font-variant-caps:normal;font-variant-numeric:normal;font-feature-settings:normal;text-align:start;letter-spacing:0px;word-spacing:0px;writing-mode:lr-tb;text-anchor:start;fill:#4e79a7;fill-opacity:1;stroke:none;stroke-width:11.65573788" x="381.06491" y="561.78162" id="text1373"><tspan ns2:role="line" id="tspan1371" x="381.06491" y="561.78162" style="stroke-width:11.65573788">A</tspan></text>
  </g>
  <g ns1:groupmode="layer" id="layer3" ns1:label="c" style="display:none">
    <text xml:space="preserve" style="font-style:normal;font-variant:normal;font-weight:normal;font-stretch:normal;font-size:466.22952271px;line-height:1.25;font-family:'Latin Modern Sans';-inkscape-font-specification:'Latin Modern Sans, Normal';font-variant-ligatures:normal;font-variant-caps:normal;font-variant-numeric:normal;font-feature-settings:normal;text-align:start;letter-spacing:0px;word-spacing:0px;writing-mode:lr-tb;text-anchor:start;fill:#e0585b;fill-opacity:1;stroke:none;stroke-width:11.65573788" x="1280.7754" y="562.01477" id="text1373-3-7"><tspan ns2:role="line" id="tspan1371-6-5" x="1280.7754" y="562.01477" style="fill:#e0585b;stroke-width:11.65573788">C</tspan></text>
  </g>
  <g ns1:groupmode="layer" id="layer2" ns1:label="b" style="display:none">
    <text xml:space="preserve" style="font-style:normal;font-variant:normal;font-weight:normal;font-stretch:normal;font-size:466.22952271px;line-height:1.25;font-family:'Latin Modern Sans';-inkscape-font-specification:'Latin Modern Sans, Normal';font-variant-ligatures:normal;font-variant-caps:normal;font-variant-numeric:normal;font-feature-settings:normal;text-align:start;letter-spacing:0px;word-spacing:0px;writing-mode:lr-tb;text-anchor:start;fill:#f18f3b;fill-opacity:1;stroke:none;stroke-width:11.65573788" x="830.22083" y="561.78162" id="text1373-3"><tspan ns2:role="line" id="tspan1371-6" x="830.22083" y="561.78162" style="fill:#f18f3b;stroke-width:11.65573788">B</tspan></text>
  </g>
<text x="1910.0px" y="1070.0" text-anchor="end" fill="black" opacity="0.75" id="slide_nb" style="font: bold 5em sans-serif">1</text></svg>